\relax 
\@writefile{toc}{\contentsline {chapter}{\numberline {III}GAMBARAN OBYEK STUDY}{12}\protected@file@percent }
\@writefile{lof}{\addvspace {10\p@ }}
\@writefile{lot}{\addvspace {10\p@ }}
\@writefile{toc}{\contentsline {section}{\numberline {3.1}Obyek Study}{12}\protected@file@percent }
\@writefile{toc}{\contentsline {paragraph}{}{12}\protected@file@percent }
\@writefile{lof}{\contentsline {figure}{\numberline {III.1}{\ignorespaces Objek Studi Penelitian\relax }}{12}\protected@file@percent }
\newlabel{objek}{{III.1}{12}}
\@writefile{toc}{\contentsline {section}{\numberline {3.2}Jenis dan Sumber Data}{12}\protected@file@percent }
\@writefile{toc}{\contentsline {paragraph}{}{12}\protected@file@percent }
\@writefile{toc}{\contentsline {subsection}{\numberline {3.2.1}Data Primer}{13}\protected@file@percent }
\@writefile{toc}{\contentsline {paragraph}{}{13}\protected@file@percent }
\@writefile{lot}{\contentsline {table}{\numberline {III.1}{\ignorespaces Data Primer dari Website D'health\relax }}{13}\protected@file@percent }
\newlabel{dataPremier}{{III.1}{13}}
\@setckpt{section/chapter3}{
\setcounter{page}{14}
\setcounter{equation}{0}
\setcounter{enumi}{5}
\setcounter{enumii}{0}
\setcounter{enumiii}{0}
\setcounter{enumiv}{0}
\setcounter{footnote}{0}
\setcounter{mpfootnote}{0}
\setcounter{part}{0}
\setcounter{chapter}{3}
\setcounter{section}{2}
\setcounter{subsection}{1}
\setcounter{subsubsection}{0}
\setcounter{paragraph}{0}
\setcounter{subparagraph}{0}
\setcounter{figure}{1}
\setcounter{table}{1}
\setcounter{caption@flags}{2}
\setcounter{ContinuedFloat}{0}
}
