# Fdb version 3
["bibtex main"] 1562770695 "main.aux" "main.bbl" "main" 1562799476
  "./IEEEtran.bst" 1562655192 59215 bc5380b3434a66b895bbc75d3d380540 ""
  "main.aux" 1562799476 3553 6d63dbb0a81c831851e6aa843ed66b8b ""
  "references.bib" 1562687570 7388 015fbfc086ab1ebc7b41e0648742b711 ""
  (generated)
  "main.bbl"
  "main.blg"
["pdflatex"] 1562799475 "/home/librantara/Documents/INTERNSHIP_DAN_TA/LateX/internship2ta2019/Librantara Erlangga/Jurnal/Internship_2/main.tex" "/home/librantara/Documents/INTERNSHIP_DAN_TA/LateX/internship2ta2019/Librantara Erlangga/Jurnal/Internship_2/main.pdf" "main" 1562799476
  "/dev/null" 1562799073 0 d41d8cd98f00b204e9800998ecf8427e ""
  "/home/librantara/Documents/INTERNSHIP_DAN_TA/LateX/internship2ta2019/Librantara Erlangga/Jurnal/Internship_2/main.aux" 1562799476 3553 6d63dbb0a81c831851e6aa843ed66b8b ""
  "/home/librantara/Documents/INTERNSHIP_DAN_TA/LateX/internship2ta2019/Librantara Erlangga/Jurnal/Internship_2/main.tex" 1562799475 2345 ae8ef3130fd4fc84abeea977c936b20a ""
  "/usr/share/texmf-dist/fonts/enc/dvips/lm/lm-mathsy.enc" 1550406775 2840 216e6e45ad352e2456e1149f28885bee ""
  "/usr/share/texmf-dist/fonts/enc/dvips/lm/lm-rm.enc" 1550406775 2327 9d6df24f9c4f7368395224341a95523a ""
  "/usr/share/texmf-dist/fonts/map/fontname/texfonts.map" 1550406775 3332 103109f5612ad95229751940c61aada0 ""
  "/usr/share/texmf-dist/fonts/tfm/public/amsfonts/symbols/msam10.tfm" 1550406775 916 f87d7c45f9c908e672703b83b72241a3 ""
  "/usr/share/texmf-dist/fonts/tfm/public/amsfonts/symbols/msam5.tfm" 1550406775 924 9904cf1d39e9767e7a3622f2a125a565 ""
  "/usr/share/texmf-dist/fonts/tfm/public/amsfonts/symbols/msam7.tfm" 1550406775 928 2dc8d444221b7a635bb58038579b861a ""
  "/usr/share/texmf-dist/fonts/tfm/public/amsfonts/symbols/msbm10.tfm" 1550406775 908 2921f8a10601f252058503cc6570e581 ""
  "/usr/share/texmf-dist/fonts/tfm/public/amsfonts/symbols/msbm5.tfm" 1550406775 940 75ac932a52f80982a9f8ea75d03a34cf ""
  "/usr/share/texmf-dist/fonts/tfm/public/amsfonts/symbols/msbm7.tfm" 1550406775 940 228d6584342e91276bf566bcf9716b83 ""
  "/usr/share/texmf-dist/fonts/tfm/public/cm/cmr10.tfm" 1550406775 1296 45809c5a464d5f32c8f98ba97c1bb47f ""
  "/usr/share/texmf-dist/fonts/tfm/public/lm/lmbsy10.tfm" 1550406775 1300 2df9da0fc09d4a8c772b3dd386a47c6a ""
  "/usr/share/texmf-dist/fonts/tfm/public/lm/lmex10.tfm" 1550406775 992 ce925c9346c7613270a79afbee98c070 ""
  "/usr/share/texmf-dist/fonts/tfm/public/lm/lmmi10.tfm" 1550406775 1528 6d36b2385e0ca062a654de6ac59cb34f ""
  "/usr/share/texmf-dist/fonts/tfm/public/lm/lmmi5.tfm" 1550406775 1508 198f5b7b99b5769126de3a533f6fc334 ""
  "/usr/share/texmf-dist/fonts/tfm/public/lm/lmmi6.tfm" 1550406775 1512 94a3fd88c6f27dbd9ecb46987e297a4e ""
  "/usr/share/texmf-dist/fonts/tfm/public/lm/lmmi7.tfm" 1550406775 1528 d5b028dd23da623848ef0645c96a1ed7 ""
  "/usr/share/texmf-dist/fonts/tfm/public/lm/lmmi9.tfm" 1550406775 1524 cdf05765c2a8bdb569ea0aa208fb0947 ""
  "/usr/share/texmf-dist/fonts/tfm/public/lm/lmsy10.tfm" 1550406775 1308 02cc510f9dd6012e5815d0c0ffbf6869 ""
  "/usr/share/texmf-dist/fonts/tfm/public/lm/lmsy5.tfm" 1550406775 1296 54ed1a711e2303d5282575278e3620b0 ""
  "/usr/share/texmf-dist/fonts/tfm/public/lm/lmsy6.tfm" 1550406775 1300 b0605d44c16c22d99dc001808e4f24ea ""
  "/usr/share/texmf-dist/fonts/tfm/public/lm/lmsy7.tfm" 1550406775 1304 32f22a15acc296b2a4e15698403dcb88 ""
  "/usr/share/texmf-dist/fonts/tfm/public/lm/lmsy9.tfm" 1550406775 1300 ca37bc0213808d24f74bf4d32f81f80d ""
  "/usr/share/texmf-dist/fonts/tfm/public/lm/rm-lmbx10.tfm" 1550406775 11880 35fcf136a2198418dfc53c83e9e2a07f ""
  "/usr/share/texmf-dist/fonts/tfm/public/lm/rm-lmbx12.tfm" 1550406775 11880 ea60d06924270684e6f852f3141c992b ""
  "/usr/share/texmf-dist/fonts/tfm/public/lm/rm-lmbx7.tfm" 1550406775 11864 44cdb751af976143ebc0bed7eb1df9f4 ""
  "/usr/share/texmf-dist/fonts/tfm/public/lm/rm-lmbx9.tfm" 1550406775 11872 6fc83bd89656207db7e11b4f7ac7546e ""
  "/usr/share/texmf-dist/fonts/tfm/public/lm/rm-lmbxi10.tfm" 1550406775 17000 ee24f610e440d069ed0693c37a39a025 ""
  "/usr/share/texmf-dist/fonts/tfm/public/lm/rm-lmr10.tfm" 1550406775 11868 4f81e9b6033c032bdaf9884f4d7ef412 ""
  "/usr/share/texmf-dist/fonts/tfm/public/lm/rm-lmr12.tfm" 1550406775 11888 6841b91e46b65cf41a49b160e6e74130 ""
  "/usr/share/texmf-dist/fonts/tfm/public/lm/rm-lmr17.tfm" 1550406775 11948 fa976674f030491ad35532a8a1e37325 ""
  "/usr/share/texmf-dist/fonts/tfm/public/lm/rm-lmr5.tfm" 1550406775 11804 aefb10c002e6492c25236524a447f969 ""
  "/usr/share/texmf-dist/fonts/tfm/public/lm/rm-lmr6.tfm" 1550406775 11836 e3b6ce3e601aec94f64a536e7f4224d5 ""
  "/usr/share/texmf-dist/fonts/tfm/public/lm/rm-lmr7.tfm" 1550406775 11852 5a9022f105fd1ee2797df861e79ae9a0 ""
  "/usr/share/texmf-dist/fonts/tfm/public/lm/rm-lmr8.tfm" 1550406775 11864 309fd7f43e4a0ba39f6f7644d76e8edf ""
  "/usr/share/texmf-dist/fonts/tfm/public/lm/rm-lmr9.tfm" 1550406775 11884 c93929a6974dce79eabb778f219d7e18 ""
  "/usr/share/texmf-dist/fonts/tfm/public/lm/rm-lmri10.tfm" 1550406775 16968 1b588d0f410bd67a83eaecf8c64b2a43 ""
  "/usr/share/texmf-dist/fonts/tfm/public/lm/rm-lmri8.tfm" 1550406775 16976 7228e7c7bc486e2318fc496e0de33875 ""
  "/usr/share/texmf-dist/fonts/tfm/public/lm/rm-lmri9.tfm" 1550406775 16968 4675b6ed6aaa9b6b1446f80f565cd449 ""
  "/usr/share/texmf-dist/fonts/type1/public/amsfonts/symbols/msam10.pfb" 1550406775 31764 459c573c03a4949a528c2cc7f557e217 ""
  "/usr/share/texmf-dist/fonts/type1/public/lm/lmbsy10.pfb" 1550406775 28028 fcd4f6ddbf905cdea8842b1a7b14335f ""
  "/usr/share/texmf-dist/fonts/type1/public/lm/lmbx10.pfb" 1550406775 121021 1bf809ce4a594679006bd72263eba59b ""
  "/usr/share/texmf-dist/fonts/type1/public/lm/lmbx12.pfb" 1550406775 116908 1fca96723793882c2e0160350c192fc8 ""
  "/usr/share/texmf-dist/fonts/type1/public/lm/lmbx9.pfb" 1550406775 126646 439622e6fd57f388c9979d39c4fce535 ""
  "/usr/share/texmf-dist/fonts/type1/public/lm/lmbxi10.pfb" 1550406775 112766 bdd4fa8b13a0d7dd137624085bd31d40 ""
  "/usr/share/texmf-dist/fonts/type1/public/lm/lmr10.pfb" 1550406775 119235 f35b44530a1d90eb90fe15d9cba67ea0 ""
  "/usr/share/texmf-dist/fonts/type1/public/lm/lmr6.pfb" 1550406775 123394 d390152bb30feeb496aaaa93299ee9ba ""
  "/usr/share/texmf-dist/fonts/type1/public/lm/lmr7.pfb" 1550406775 121145 68312a933e2c689ed40ec0aba373e279 ""
  "/usr/share/texmf-dist/fonts/type1/public/lm/lmr8.pfb" 1550406775 122174 a7a08406857c9530a0320a2517f60370 ""
  "/usr/share/texmf-dist/fonts/type1/public/lm/lmr9.pfb" 1550406775 121065 50bbfa703ce7e11638752ef5a6d120c7 ""
  "/usr/share/texmf-dist/fonts/type1/public/lm/lmri10.pfb" 1550406775 112593 fda2373ba4420af33949610de4c28fe8 ""
  "/usr/share/texmf-dist/fonts/type1/public/lm/lmri8.pfb" 1550406775 109952 3dd76c0c5c680d519bb6d59a066c0826 ""
  "/usr/share/texmf-dist/fonts/type1/public/lm/lmri9.pfb" 1550406775 109598 cb570392cb143ca78182169795feed7a ""
  "/usr/share/texmf-dist/fonts/type1/public/lm/lmsy10.pfb" 1550406775 27863 09ce3735688ffde955e72da27c95b61a ""
  "/usr/share/texmf-dist/tex/context/base/mkii/supp-pdf.mkii" 1550406775 71627 94eb9990bed73c364d7f53f960cc8c5b ""
  "/usr/share/texmf-dist/tex/generic/ifxetex/ifxetex.sty" 1550406775 1458 43ab4710dc82f3edeabecd0d099626b2 ""
  "/usr/share/texmf-dist/tex/generic/oberdiek/etexcmds.sty" 1550406775 7612 729a8cc22a1ee0029997c7f74717ae05 ""
  "/usr/share/texmf-dist/tex/generic/oberdiek/ifluatex.sty" 1550406775 7324 2310d1247db0114eb4726807c8837a0e ""
  "/usr/share/texmf-dist/tex/generic/oberdiek/ifpdf.sty" 1550406775 1300 96620a7d94bc0ceb261d968770ce8315 ""
  "/usr/share/texmf-dist/tex/generic/oberdiek/ifvtex.sty" 1550406775 6797 90b7f83b0ad46826bc16058b1e3d48df ""
  "/usr/share/texmf-dist/tex/generic/oberdiek/infwarerr.sty" 1550406775 8253 473e0e41f9adadb1977e8631b8f72ea6 ""
  "/usr/share/texmf-dist/tex/generic/oberdiek/kvdefinekeys.sty" 1550406775 5152 b67a3a964ad9851e095110c854a1d461 ""
  "/usr/share/texmf-dist/tex/generic/oberdiek/kvsetkeys.sty" 1550406775 14040 ac8866aac45982ac84021584b0abb252 ""
  "/usr/share/texmf-dist/tex/generic/oberdiek/ltxcmds.sty" 1550406775 18425 5b3c0c59d76fac78978b5558e83c1f36 ""
  "/usr/share/texmf-dist/tex/generic/oberdiek/pdftexcmds.sty" 1550406775 20457 0d2e642faacbb41c9d72690f8cc529cd ""
  "/usr/share/texmf-dist/tex/generic/unicode-data/UnicodeData.txt" 1550406775 1769137 acc291106c3758d2025f8d7bd5518bee ""
  "/usr/share/texmf-dist/tex/generic/xkeyval/xkeyval.tex" 1550406775 19231 26434a5656c684f5ffb1f26f98006baa ""
  "/usr/share/texmf-dist/tex/generic/xkeyval/xkvutils.tex" 1550406775 7677 6f5ce7c1124cad7ec57d05b2562bd8fe ""
  "/usr/share/texmf-dist/tex/latex/adjustbox/adjcalc.sty" 1550406342 5608 e823b3adfbc2ea70e453a21ea6e2ee12 ""
  "/usr/share/texmf-dist/tex/latex/adjustbox/adjustbox.sty" 1550406342 55974 e90ddd9a6114a7008a6915da904f2847 ""
  "/usr/share/texmf-dist/tex/latex/adjustbox/tc-pdftex.def" 1550406342 4061 aa67e478bd1a58a42e026c354f10b158 ""
  "/usr/share/texmf-dist/tex/latex/adjustbox/trimclip.sty" 1550406342 7142 42aaa49a4afcdc52e9d95e3b19f439be ""
  "/usr/share/texmf-dist/tex/latex/amsfonts/amsfonts.sty" 1550406775 5949 3f3fd50a8cc94c3d4cbf4fc66cd3df1c ""
  "/usr/share/texmf-dist/tex/latex/amsfonts/amssymb.sty" 1550406775 13829 94730e64147574077f8ecfea9bb69af4 ""
  "/usr/share/texmf-dist/tex/latex/amsfonts/umsa.fd" 1550406775 961 6518c6525a34feb5e8250ffa91731cff ""
  "/usr/share/texmf-dist/tex/latex/amsfonts/umsb.fd" 1550406775 961 d02606146ba5601b5645f987c92e6193 ""
  "/usr/share/texmf-dist/tex/latex/amsmath/amsbsy.sty" 1550406775 2211 ca7ce284ab93c8eecdc6029dc5ccbd73 ""
  "/usr/share/texmf-dist/tex/latex/amsmath/amsgen.sty" 1550406775 4161 7f6eb9092061a11f87d08ed13515b48d ""
  "/usr/share/texmf-dist/tex/latex/amsmath/amsmath.sty" 1550406775 85093 77cfa18ddbae4d9b74ade33d843686d3 ""
  "/usr/share/texmf-dist/tex/latex/amsmath/amsopn.sty" 1550406775 4116 32e6abd27229755a83a8b7f18e583890 ""
  "/usr/share/texmf-dist/tex/latex/amsmath/amstext.sty" 1550406775 2432 8ff93b1137020e8f21930562a874ae66 ""
  "/usr/share/texmf-dist/tex/latex/base/ifthen.sty" 1550406775 5161 c004ea5a189d4bdcf42e86754ad75a58 ""
  "/usr/share/texmf-dist/tex/latex/base/size10.clo" 1550406775 8294 6d6e23d5169c0d89d173f6c7e08a005a ""
  "/usr/share/texmf-dist/tex/latex/caption/caption.sty" 1550406775 68576 86bbc6bd5a409b3c353fccc1a815fa5b ""
  "/usr/share/texmf-dist/tex/latex/caption/caption3.sty" 1550406775 68510 943558eecf41da4e76fc614fd7f5deff ""
  "/usr/share/texmf-dist/tex/latex/collectbox/collectbox.sty" 1550406342 9116 495d44b5a3e7be0c46c5d1f053f457f0 ""
  "/usr/share/texmf-dist/tex/latex/fancyhdr/fancyhdr.sty" 1550406775 11128 a53805799bebfed6358fc1658a18e41f ""
  "/usr/share/texmf-dist/tex/latex/float/float.sty" 1550406775 6749 16d2656a1984957e674b149555f1ea1d ""
  "/usr/share/texmf-dist/tex/latex/geometry/geometry.sty" 1550406775 41645 0653033a985e06c69a2a9cea9a95e31a ""
  "/usr/share/texmf-dist/tex/latex/graphics-cfg/graphics.cfg" 1550406775 1224 978390e9c2234eab29404bc21b268d1e ""
  "/usr/share/texmf-dist/tex/latex/graphics-def/pdftex.def" 1550406775 17334 520b9b85ad8a2a48eda3f643e27a5179 ""
  "/usr/share/texmf-dist/tex/latex/graphics/graphics.sty" 1550406775 15272 5a97061616e0c8b2aa79c6615ff769f4 ""
  "/usr/share/texmf-dist/tex/latex/graphics/graphicx.sty" 1550406775 9063 d0a305975932762117cd1f06a582f896 ""
  "/usr/share/texmf-dist/tex/latex/graphics/keyval.sty" 1550406775 2591 6404d0c7d28505fb38ce0d86c2e28ae7 ""
  "/usr/share/texmf-dist/tex/latex/graphics/rotating.sty" 1550406775 6966 6f46d3aa8066c4205b8f244817b24ed7 ""
  "/usr/share/texmf-dist/tex/latex/graphics/trig.sty" 1550406775 3977 cb9221976ed8a183afad65b59aa8629a ""
  "/usr/share/texmf-dist/tex/latex/ifoddpage/ifoddpage.sty" 1550406342 2148 0426cd8bb94163c1e23726d0c15e2c21 ""
  "/usr/share/texmf-dist/tex/latex/l3kernel/expl3-code.tex" 1550406775 978969 ea00779a4e924fc996eabfce5826905e ""
  "/usr/share/texmf-dist/tex/latex/l3kernel/expl3.sty" 1550406775 9824 221c10456d7fdfd5013036a3b991642e ""
  "/usr/share/texmf-dist/tex/latex/l3kernel/l3pdfmode.def" 1550406775 16212 713dbead930ffb58b188112777e06b82 ""
  "/usr/share/texmf-dist/tex/latex/l3packages/xparse/xparse.sty" 1550406775 78679 0f13caccf8fc0a14ee080e185fe4bd6e ""
  "/usr/share/texmf-dist/tex/latex/lastpage/lastpage.sty" 1550406342 9922 eb7d00b99f0f5207f71a5cdcbafceac1 ""
  "/usr/share/texmf-dist/tex/latex/latexconfig/epstopdf-sys.cfg" 1550406775 678 4792914a8f45be57bb98413425e4c7af ""
  "/usr/share/texmf-dist/tex/latex/lipsum/lipsum.ltd.tex" 1550406342 98047 c6fa29828cc60471827afe275c8bd77f ""
  "/usr/share/texmf-dist/tex/latex/lipsum/lipsum.sty" 1550406342 18060 8cf65af2c4529eed91b5d364b50d3ada ""
  "/usr/share/texmf-dist/tex/latex/lm/lmodern.sty" 1550406775 1606 c17281c7cff2bbd7ff0173e1433487ec ""
  "/usr/share/texmf-dist/tex/latex/lm/omllmm.fd" 1550406775 888 44447a3a3af84a22454ef89500942d93 ""
  "/usr/share/texmf-dist/tex/latex/lm/omslmr.fd" 1550406775 1013 f8133048bddeed1bf1041c9d830a3723 ""
  "/usr/share/texmf-dist/tex/latex/lm/omslmsy.fd" 1550406775 805 af340a8260c447aa315cfc740ff0152f ""
  "/usr/share/texmf-dist/tex/latex/lm/omxlmex.fd" 1550406775 566 a94661f7b66063f191960bb7935b6ba2 ""
  "/usr/share/texmf-dist/tex/latex/lm/ot1lmr.fd" 1550406775 1880 bae7b659316f7344a86218ad38b01d91 ""
  "/usr/share/texmf-dist/tex/latex/oberdiek/epstopdf-base.sty" 1550406775 12095 5337833c991d80788a43d3ce26bd1c46 ""
  "/usr/share/texmf-dist/tex/latex/oberdiek/epstopdf.sty" 1550406775 4167 fc50b4e5b185008bb9308b1ea4ce64d4 ""
  "/usr/share/texmf-dist/tex/latex/oberdiek/grfext.sty" 1550406775 7075 2fe3d848bba95f139de11ded085e74aa ""
  "/usr/share/texmf-dist/tex/latex/oberdiek/kvoptions.sty" 1550406775 22417 1d9df1eb66848aa31b18a593099cf45c ""
  "/usr/share/texmf-dist/tex/latex/preprint/authblk.sty" 1550406342 7016 985a983ce041cc8959cd31133cba0244 ""
  "/usr/share/texmf-dist/tex/latex/subfig/subfig.sty" 1550406775 21369 9ef165ca6df8815c92e693146a376c92 ""
  "/usr/share/texmf-dist/tex/latex/titlesec/titlesec.sty" 1550406342 37387 afa86533e532701faf233f3f592c61e0 ""
  "/usr/share/texmf-dist/tex/latex/tools/array.sty" 1550406775 12527 31ab547f6520657998ecf91709f950ac ""
  "/usr/share/texmf-dist/tex/latex/tools/indentfirst.sty" 1550406775 1615 dba466e323af4fcd4a6acb87444d96c3 ""
  "/usr/share/texmf-dist/tex/latex/tools/tabularx.sty" 1550406775 7145 01b7b53bf69f5c0f63803657eb51217f ""
  "/usr/share/texmf-dist/tex/latex/varwidth/varwidth.sty" 1550406342 10894 d359a13923460b2a73d4312d613554c8 ""
  "/usr/share/texmf-dist/tex/latex/xkeyval/xkeyval.sty" 1550406775 4962 9c1069474ff71dbc47d5006555e352d3 ""
  "/usr/share/texmf-dist/web2c/texmf.cnf" 1550406775 33301 a3134070eacafb10b1f371612ce2650d ""
  "/var/lib/texmf/fonts/map/pdftex/updmap/pdftex.map" 1557032975 3106252 d5255ed7fd6ec6ea7699581e9a54cb46 ""
  "/var/lib/texmf/web2c/pdftex/pdflatex.fmt" 1557032960 7919195 50f523a7c7946097d84349a81faee635 ""
  "figures/ArsitekturSebelum.jpg" 1560268178 51463 30d060ef85c174f0784bee997412015c ""
  "figures/ArsitekturSesudah.jpg" 1560660652 33383 948cba8bc80bf53062061f2e70a3150a ""
  "figures/xp.png" 1560170632 71616 ad1d36fa0453ebaa8e8d3a4a7d2d7919 ""
  "iaesarticle3.cls" 1562655192 23658 dc5f2b2ae4d8c8f5fc4c8e74682540ab ""
  "main.aux" 1562799476 3553 6d63dbb0a81c831851e6aa843ed66b8b ""
  "main.bbl" 1562770695 4794 c52f5ec6efc84b0e028665409188698c "bibtex main"
  "main.tex" 1562799475 2345 ae8ef3130fd4fc84abeea977c936b20a ""
  "section/1.tex" 1562684009 2041 b291652fb596a6c8e207d5e06af5c2be ""
  "section/2.tex" 1562686308 2651 d09ea315371f4b64cf75551d85562dd5 ""
  "section/3.tex" 1562687583 3359 7ab82adfc35d67dee17da12f60c40223 ""
  "section/4.tex" 1562771277 5777 5a7dac5c9c787e4c65f3747001e55f1c ""
  "section/5.tex" 1562772763 814 8358c4de704358ad1d532c056e2901f4 ""
  "section/abstract.tex" 1562689640 1759 11de2d1f438eaf9b57b62d074f3278eb ""
  "uarial.sty" 1562655192 856 35196ce1d5b2d28943092f165790986f ""
  (generated)
  "/home/librantara/Documents/INTERNSHIP_DAN_TA/LateX/internship2ta2019/Librantara Erlangga/Jurnal/Internship_2/main.pdf"
  "/home/librantara/Documents/INTERNSHIP_DAN_TA/LateX/internship2ta2019/Librantara Erlangga/Jurnal/Internship_2/main.log"
  "main.pdf"
  "main.aux"
  "main.log"
