Ket;NO_VOUCHER;KODE_JIWA;NIP_NPP;NOPEN_NOTAS;NAMA_PESERTA;STATUS;ALAMAT;KECAMATAN;KOTA;PROVINSI;NO_REK;NO_TELP;SEX_PESERTA;TGL_LAHIR_PESERTA;PKT_GOL;GAJI_POKOK;UDW;PENERIMA_PENSIUN;STATUS_PENERIMA;SEX_PENERIMA;TGL_LAHIR_PENERIMA;JENIS_PENSIUN;JENIS_DAPEM;KD_SPP_KLIM;TMT_PENSIUN;TGL_WAFAT;TGL_HITUNG;TGL_BAYAR;KODE_TMT_STOP;TGL_AKHIR_LAPORAN;TGL_BARU_LAPORAN;TGL_LAPORAN_PENARIKAN;TGL_UPDATE_LAPORAN;Cluster;MASA_TENGGANG;CLASS_RESIKO;CLASS_PELACAKAN
SP4A;2018013105;1100;130833596;13083353600;TUTI HASTUTI;KAWIN;KP. CIKOPAK RT.01/01;BABAKANCIKAO;KAB. PURWAKARTA;JAWA BARAT;1.04E+11;2166936547;P;07/06/1961;4A;Rp4.762.000;Rp0;TUTI HASTUTI;PENSIUN SENDIRI;P;07/06/1961;PENSIUN SENDIRI PNS PUSAT;PENSIUN SENDIRI PNS PUSAT;A;09/10/2011;TIDAK ADA;30/10/2011;31/10/2011;AKTIF;01/12/2017;01/03/2018;03/03/2018;01/06/2018;cluster0;3;BERESIKO;AMAN
SP4A;2018013107;1100;10205841;1020584100;AWAH HERMAWAN SH;KAWIN;KP. LEGOK LOA RT.01/12;BALEENDAH;KAB. BANDUNG;JAWA BARAT;8.95E+13;87965641235;L;06/10/1961;4A;Rp4.762.000;Rp0;AWAN HERMAWAN SH;PENSIUN SENDIRI;L;06/10/1961;PENSIUN SENDIRI PNS PUSAT;PENSIUN SENDIRI PNS PUSAT;A;09/10/2011;TIDAK ADA;30/10/2011;31/10/2011;AKRIF;01/01/2018;01/04/2018;20/03/2018;01/07/2018;cluster0;2;TIDAK;AMAN
SP4A;2018012139;1000;140133576;14013357600;HUSKIN;KAWIN;KP. KRAJAN BARAT RT.010/02;PURWADADI;KAS. SUBANG;JAWA BARAT;81652651100;82269547823;L;05/10/1942;1D;Rp241.50;Rp0;HUSKIN;PENSIUN SENDIRI;L;05/10/1942;PENSIUN SENDIRI PNS PUSAT;PENSIUN SENDIRI PNS PUSAT;A;28/08/2011;TIDAK ADA;10/11/2011;10/12/2011;AKTIF;01/03/2018;01/06/2018;25/04/2018;01/09/2018;cluster0;3;BERESIKO;AMAN
SP4A;2018012141;1100;140110245;14011024500;TITIK SUHAEDAH;KAWIN;JL. JATI TIMUR BLOK E14 NO.11 RT.06/08;MARGAASIH;KAB. BANDUNG;JAWA BARAT;3.54E+13;81963254785;P;17/07/1960;3B;Rp3.952.600;Rp0;TITIK SUHAEDAH;PENSIUN SENDIRI;P;17/07/1960;PENSIUN SENDIRI PNS PUSAT;PENSIUN SENDIRI PNS PUSAT;A;28/08/2011;TIDAK ADA;10/11/2011;10/12/2011;AKTIF;01/10/2017;01/01/2018;28/03/2018;01/04/2018;cluster0;5;BERESIKO;BERBAHAYA
SP4A;2018011867;1000;132239877;13223987700;TRI YUWANTINI A MD;KAWIN;JL. SUKAASIH ATAS III NO.296 RT.03/06;MANDALAJATI;KOTA BANDUNG;JAWA BARAT;611000427;87799662212;P;09/02/1964;3B;Rp3.601.400;Rp0;TRI YUWANTINI A MD;PENSIUN SENDIRI;P;09/02/1964;PENSIUN SENDIRI PNS PUSAT;PENSIUN SENDIRI PNS PUSAT;A;18/08/2012;TIDAK ADA;10/04/2012;10/05/2012;AKTIF;01/12/2017;01/03/2018;31/03/2018;01/06/2018;cluster0;3;BERESIKO;AMAN
SP4A;2018011875;1101;131405225;13140522500;DAHNIAR AZHAR ST;KAWIN;JL. ARWANA BLOK.Q-9 NO.15N KOMP. MARGAASIH RT.03/17;MARGAASIH;KAB. BANDUNG;JAWA BARAT;7.24E+14;81236987852;L;24/04/1959;3C;Rp4.383.300;Rp0;DAHNIAR AZHAR ST;PENSIUN SENDIRI;L;24/04/1959;PENSIUN SENDIRI PNS PUSAT;PENSIUN SENDIRI PNS PUSAT;A;18/08/2012;TIDAK ADA;10/04/2012;10/05/2012;AKTIF;01/02/2018;01/05/2018;30/03/2018;01/08/2018;cluster0;1;TIDAK;AMAN
SP4A;2018011870;1100;160026612;16002661200;AGUS AHMAD SAFARI;KAWIN;KP. CIPATAT NO.27 RT.01/10;MARGAASIH;KAB. BANDUNG;JAWA BARAT;69406823101;89589637412;L;20/08/1958;3C;Rp4.249.500;Rp0;AGUS AHMAD SAFARI;PENSIUN SENDIRI;L;20/08/1958;PENSIUN SENDIRI PNS PUSAT;PENSIUN SENDIRI PNS PUSAT;A;18/08/2012;TIDAK ADA;10/04/2012;10/05/2012;AKTIF;01/05/2018;01/07/2018;27/07/2018;01/11/2018;cluster0;2;TIDAK;AMAN
SP4A;2018011873;1001;131168551;13116855100;NENI ROHAENI;KAWIN;KP. MANIRANCAN RT.03/02;MAJALAYA;KAB. BANDUNG;JAWA BARAT;1774840100;88189638741;P;27/06/1963;4A;Rp4.616.600;Rp0;NENI ROHAENI;PENSIUN SENDIRI;P;27/06/1963;PENSIUN SENDIRI PNS PUSAT;PENSIUN SENDIRI PNS PUSAT;A;18/08/2012;TIDAK ADA;10/04/2012;10/05/2012;AKTIF;01/05/2018;01/09/2018;22/09/2018;01/12/2018;cluster0;4;BERESIKO;SEDANG
SP4A;2018012147;1100;131237706;13123770600;YOYOH SOBIROH;KAWIN;KP. RANCABALI RT.03/05;PADALARANG;KAB. BANDUNG BARAT;JAWA BARAT;15869501100;85214796325;L;05/06/1958;4A;Rp4.475.700;Rp0;YOYOH SOBIROH;PENSIUN SENDIRI;L;05/06/1958;PENSIUN SENDIRI PNS PUSAT;PENSIUN SENDIRI PNS PUSAT;A;28/08/2010;TIDAK ADA;10/11/2010;10/12/2010;AKTIF;01/10/2018;01/11/2018;15/11/2018;01/04/2019;cluster0;1;TIDAK;AMAN
SP4A;2018012149;1100;50036895;5003689500;DUDUNG KUSMANA HAMZAH SETIAWAN;KAWIN;KP. TEGALLAJA RT.03/06;NGAMPRAH;KAB. BANDUNG BARAT;JAWA BARAT;11482635100;89636987896;L;08/05/1960;4B;Rp4.811.900;Rp0;DUDUNG KUSMANA HAMZAH SETIAWAN;PENSIUN SENDIRI;L;08/05/1960;PENSIUN SENDIRI PNS PUSAT;PENSIUN SENDIRI PNS PUSAT;A;28/08/2010;TIDAK ADA;10/11/2010;10/12/2010;AKTIF;01/04/2018;01/06/2018;01/06/2018;01/09/2018;cluster0;2;TIDAK;AMAN
SP4A;2018012153;1001;40046848;4004684800;MAMAN SUHERMAN;KAWIN;JL. RUSBANDI NO.19-B RT.01/03;ARCAMANIK;KOTA BANDUNG;JAWA BARAT;968310123;221896741;L;25/06/1960;3B;Rp3.952.600;Rp0;MAMAN SUHERMAN;PENSIUN SENDIRI;L;25/06/1960;PENSIUN SENDIRI PNS PUSAT;PENSIUN SENDIRI PNS PUSAT;A;28/08/2010;TIDAK ADA;10/11/2010;10/12/2010;AKTIF;01/05/2018;01/08/2018;04/08/2018;01/11/2018;cluster0;3;BERESIKO;AMAN
SP4A;2018012675;1000;131287355;13128735500;CUCU SURBAIKAH S PD;KAWIN;JL. SAUYUNAN IV NO.05 RT.07/07;DOJONGLOA KIDUL;KOTA BANDUNG;JAWA BARAT;90501260100;89563214788;P;19/09/1958;4A;Rp4.762.000;Rp0;CUCU SURBAIKAH S PD;PENSIUN SENDIRI;P;19/09/1958;PENSIUN SENDIRI PNS PUSAT;PENSIUN SENDIRI PNS PUSAT;A;09/03/2012;TIDAK ADA;23/10/2012;24/10/2012;AKTIF;01/03/2018;01/06/2018;30/05/2018;01/09/2018;cluster0;2;TIDAK;AMAN
SP4A;2018012687;1100;131237468;13123746800;A E SUTIMAN;KAWIN;JL. BABAKAN RT.05/05;SOREANG;KAB. BANDUNG;JAWA BARAT;62014090100;82196325874;L;15/12/1954;4A;Rp4.093.300;Rp0;A E SUTIMAN;PENSIUN SENDIRI;L;15/12/1954;PENSIUN SENDIRI PNS PUSAT;PENSIUN SENDIRI PNS PUSAT;A;09/03/2012;TIDAK ADA;23/10/2012;24/10/2012;AKTIF;01/06/2018;01/08/2018;26/08/2018;01/12/2018;cluster0;2;TIDAK;AMAN
SP4A;2018012707;1100;131472427;13147242700;DRS RAHMAT SADILI;KAWIN;BTN PEPABRI BUMI PRATAMA GUNTENG JL. SADEWA BLOK Z;KARANGTENGAH;KAB. CIANJUR;JAWA BARAT;57835419100;89963214789;L;19/07/1958;4B;Rp4.963.400;Rp0;Drs. RAHMAT SADILI;PENSIUN SENDIRI;L;19/07/1958;PENSIUN SENDIRI PNS PUSAT;PENSIUN SENDIRI PNS PUSAT;A;09/03/2012;TIDAK ADA;23/10/2012;24/10/2012;AKTIF;01/11/2017;01/01/2018;14/01/2018;01/04/2018;cluster0;3;BERESIKO;AMAN
SP4A;2018012724;1101;131364860;13136486000;A SAEFULLOH;KAWIN;JL. ALDATROG BLOK D LANUD SULAEMAN;MARGAHAYU;KAB. BANDUNG;JAWA BARAT;2.2E+12;81789654123;L;14/08/1958;4A;Rp4.475.700;Rp0;A SAEFULLOH;PENSIUN SENDIRI;L;14/08/1958;PENSIUN SENDIRI PNS PUSAT;PENSIUN SENDIRI PNS PUSAT;A;09/03/2011;TIDAK ADA;23/10/2011;24/10/2011;AKTIF;01/02/2018;01/05/2018;02/03/2018;01/08/2018;cluster0;1;TIDAK;AMAN
SP4A;2018012726;1102;131364862;13136486200;YUSUF HIKAMUDIN;KAWIN;KP. CULAMEGA RT.02/012;PASIRJAMBU;KAB. BANDUNG;JAWA BARAT;9520007100;85214789632;L;26/03/1973;2C;Rp2.989.300;Rp0;YUSUF HIKAMUDIN;PENSIUN SENDIRI;L;26/03/1973;PENSIUN SENDIRI PNS PUSAT;PENSIUN SENDIRI PNS PUSAT;A;09/03/2011;TIDAK ADA;23/10/2011;24/10/2011;AKTIF;01/02/2018;01/06/2018;03/06/2018;01/08/2018;cluster0;2;TIDAK;AMAN
SP4A;2018012727;1100;131129704;13112970400;ZULAIDA S PD;KAWIN;JL. RASADAN III NO.21/94 RT.01/06;ASTANA ANYAR;KOTA BANDUNG;JAWA BARAT;85761021101;88763985214;P;08/09/1958;4A;Rp4.762.000;Rp0;ZULAIDA S PD;PENSIUN SENDIRI;P;08/09/1958;PENSIUN SENDIRI PNS PUSAT;PENSIUN SENDIRI PNS PUSAT;A;09/03/2011;TIDAK ADA;23/10/2011;24/10/2011;AKTIF;01/09/2018;01/10/2018;04/10/2018;01/03/2019;cluster0;1;TIDAK;AMAN
SP4A;2018012728;1102;480197567;48019756700;ANDA SUHANDA SH;KAWIN;KP. PAMOYANAN RT.01/06;KATAPANG;KAB. BANDUNG;JAWA BARAT;6870295100;82178965412;L;24/07/1973;3C;Rp3.116.500;Rp0;ANDA SUHANDA SH;PENSIUN SENDIRI;L;24/07/1973;PENSIUN SENDIRI PNS PUSAT;PENSIUN SENDIRI PNS PUSAT;A;09/03/2011;TIDAK ADA;23/10/2011;24/10/2011;AKTIF;01/03/2018;01/05/2018;19/05/2018;01/09/2018;cluster0;2;TIDAK;AMAN
SP4A;2018012724;1101;131364860;13136486000;A SAEFULLOH;KAWIN;JL. ALDATROG BLOK D LANUD SULAEMAN;MARGAHAYU;KAB. BANDUNG;JAWA BARAT;2.2E+12;81789654123;L;14/08/1958;4A;Rp4.475.700;Rp0;A SAEFULLOH;PENSIUN SENDIRI;L;14/08/1958;PENSIUN SENDIRI PNS PUSAT;PENSIUN SENDIRI PNS PUSAT;A;09/03/2011;TIDAK ADA;23/10/2011;24/10/2011;AKTIF;01/04/2018;01/07/2018;27/07/2018;01/10/2018;cluster0;2;TIDAK;AMAN
SP4A;2018012149;1100;50036895;5003689500;DUDUNG KUSMANA HAMZAH SETIAWAN;KAWIN;KP. TEGALLAJA RT.03/06;NGAMPRAH;KAB. BANDUNG BARAT;JAWA BARAT;11482635100;89636987896;L;08/05/1960;4B;Rp4.811.900;Rp0;DUDUNG KUSMANA HAMZAH SETIAWAN;PENSIUN SENDIRI;L;08/05/1960;PENSIUN SENDIRI PNS PUSAT;PENSIUN SENDIRI PNS PUSAT;A;28/08/2010;TIDAK ADA;10/11/2010;10/12/2010;AKTIF;01/06/2018;01/09/2018;22/07/2018;01/12/2018;cluster0;1;TIDAK;AMAN
SP4A;2018011803;1101;196000000;13095100000;NENENG NURLAELA ROSITA;KAWIN;LING GUNUNG MERAK RT.04 RW.02 REGOL WETAN;SUMEDANG SELATAN;KAB SUMEDANG;JAWA BARAT;9.4E+12;85320017308;P;09/11/1966;4A;Rp4.616.600;Rp0;NENENG NURLAELA ROSITA;PENSIUN SENDIRI;P;09/11/1966;PENSIUN SENDIRI PNS DAERAH OTONOM;PENSIUN SENDIRI PNS DAERAH OTONOM;A;02/09/2011;TIDAK ADA;13/09/2018;14/09/2018;AKTIF;01/03/2018;01/06/2018;30/07/2018;01/09/2018;cluster0;4;BERESIKO;SEDANG
SP4A;2018010092;1101;1.96E+17;15021424700;MUKMIN M PD;KAWIN;BABAKAN CIBEUREUM NO : 86 RT. 003/RW.001;ANDIR;BANDUNG;JAWA BARAT;4.07E+13;81321092649;L;04/09/1958;4B;Rp4.811.900;Rp0;MUKMIN M PD;PENSIUN SENDIRI;L;04/09/1958;PENSIUN SENDIRI PNS PUSAT;PENSIUN SENDIRI PNS PUSAT;A;01/08/2011;TIDAK ADA;10/09/2011;11/09/2011;AKTIF;01/04/2018;01/07/2018;25/07/2018;01/10/2018;cluster0;3;BERESIKO;AMAN
SP4A;2018010093;1100;1.96E+17;13146265600;CAHYA MULYANA S PD;KAWIN;KP. KRAJAN RT.013/RW.009 SAGAHALAHERANG KIDUL;SAGALAHERANG;KAB SUBANG;JAWA BARAT;801311683;85294100414;L;03/09/1958;4A;Rp4.206.500;Rp0;CAHYA MULYANA SPD;PENSIUN SENDIRI;L;03/09/1958;PENSIUN SENDIRI PNS PUSAT;PENSIUN SENDIRI PNS PUSAT;A;01/08/2011;TIDAK ADA;10/09/2011;11/09/2011;AKTIF;01/05/2018;01/08/2018;23/10/2018;01/01/2018;cluster0;5;BERESIKO;BERBAHAYA
SP4A;2018010261;1100;50047279;5004727900;DRS MUHDI M SI;KAWIN;DSN PEUNTAS RT.003/R.001 BUAHDUA;BUAHDUA;KAB SUMEDANG;JAWA BARAT;22384635100;87965412563;L;06/09/1960;4B;Rp4.665.000;Rp0;DRS MUHDI M SI;PENSIUN SENDIRI;L;06/09/1960;PENSIUN SENDIRI PNS PUSAT;PENSIUN SENDIRI PNS PUSAT;A;08/08/2011;TIDAK ADA;17/09/2011;18/09/2011;AKTIF;01/06/2018;01/09/2018;18/09/2018;01/12/2018;cluster0;3;BERESIKO;AMAN
SP4A;2018010267;1100;70013565;7001356500;H UJANG TAHLI SE;KAWIN;PERUM GRIYA CINANGSI ASRI BLOK B NO 02 RT 14 RW 05;CIBOGO;KAB SUBANG;JAWA BARAT;2.2E+12;54785214563;L;01/09/1960;4A;Rp4.616.600;Rp0;H UJANG TAHLI SE;PENSIUN SENDIRI;L;01/09/1960;PENSIUN SENDIRI PNS PUSAT;PENSIUN SENDIRI PNS PUSAT;A;09/08/2011;TIDAK ADA;18/09/2011;19/09/2011;AKTIF;01/08/2018;01/10/2018;10/10/2018;01/02/2019;cluster0;2;TIDAK;AMAN
SP4A;2018010377;1100;480111800;48011180000;ODANG HERI SUGIATNA;KAWIN;JL GARU NO 19 RT.04/011 BABAKANSARI;KIARACONDONG;BANDUNG;JAWA BARAT;2.73E+11;87798415632;L;08/09/1960;3C;Rp4.119.700;Rp0;ODANG HERI SUGIATNA;PENSIUN SENDIRI;L;08/09/1960;PENSIUN SENDIRI PNS PUSAT;PENSIUN SENDIRI PNS PUSAT;A;11/08/2011;TIDAK ADA;20/09/2011;21/09/2011;AKTIF;01/08/2018;01/11/2018;30/09/2018;01/02/2019;cluster0;1;TIDAK;AMAN
SP4A;2018010387;1100;80122980;8012298000;IR SIGIT ENDANG MURTININGSIH;KAWIN;DUSUN MARGA MULYA RT.002/RW.010 HEGARMANAH;JATINANGOR;KAB SUMEDANG;JAWABARAT;14678913100;82145632587;L;28/09/1960;4A;Rp3.953.600;Rp0;IR SIGIT ENDANG MURTININGSIH;PENSIUN SENDIRI;L;28/09/1960;PENSIUN SENDIRI PNS PUSAT;PENSIUN SENDIRI PNS PUSAT;A;11/08/2011;TIDAK ADA;20/09/2011;21/09/2011;AKTIF;01/08/2018;01/12/2018;15/12/2018;01/02/2019;cluster0;4;BERESIKO;SEDANG
SP4A;2018010220;1101;1.96E+17;48011354900;DRS HENDRI SOFYAN SH;KAWIN;JL KURDI II NO.14 RT/RW 033/001 KARASAK;ASTANA ANYAR;BANDUNG;JAWA BARAT;2.23E+11;82117912126;L;03/09/1960;4A;Rp4.206.500;Rp0;DRS HENDRI SOFYAN SH;PENSIUN SENDIRI;L;03/09/1960;PENSIUN SENDIRI PNS DAERAH OTONOM;PENSIUN SENDIRI PNS DAERAH OTONOM;A;05/08/2012;TIDAK ADA;14/09/2012;15/09/2012;AKTIF;01/06/2018;01/09/2018;17/08/2018;01/02/2019;cluster0;2;TIDAK;AMAN
SP4A;2018010404;1000;1.96E+17;48010433200;YOYON SUPRIYONO SE MM;KAWIN;GG NANGKASUNI NO.46 RT.002 RW.018 TAMANSARI;BANDUNG WETAN;BANDUNG;JAWA BARAT;3.27E+15;81320315115;L;24/09/1960;4A;Rp4.206.500;Rp0;YOYON SUPRIYONO SE MM;PENSIUN SENDIRI;L;24/09/1960;PENSIUN SENDIRI PNS DAERAH OTONOM;PENSIUN SENDIRI PNS DAERAH OTONOM;A;12/08/2012;TIDAK ADA;21/09/2012;22/09/2012;AKTIF;01/03/2018;01/06/2018;21/04/2018;01/09/2018;cluster0;1;TIDAK;AMAN
SP4A;2018010095;1100;1.96E+17;14037230800;TITIK SUPRIYATI;LAJANG;GG PA MARJABAN NO.94/1982 A RT.008/RW.004 SUKABUNGAH;SUKAJADI;BANDUNG;JAWA BARAT;9.89E+13;82116644724;P;25/09/1960;2D;Rp3.638.200;Rp0;TITIK SUPRIYATI;PENSIUN SENDIRI;P;25/09/1960;PENSIUN SENDIRI PNS PUSAT;PENSIUN SENDIRI PNS PUSAT;A;07/01/2012;TIDAK ADA;10/09/2012;11/09/2012;AKTIF;01/12/2017;01/03/2018;31/02/2018;01/06/2018;cluster0;2;TIDAK;AMAN
SP4A;2018010215;1100;1.96E+17;1403781500;SURAHMAT;KAWIN;JL CILACAP NO.4 RT/RW 05/11 ANTAPANI KIDUL;ANTAPANI;BANDUNG;JAWA BARAT;7.48E+13;8157148013;L;15/09/1960;2A;Rp2.838.200;Rp0;SURAHMAT;PENSIUN SENDIRI;L;15/09/1960;PENSIUN SENDIRI PNS DAERAH OTONOM;PENSIUN SENDIRI PNS DAERAH OTONOM;A;05/07/2011;TIDAK ADA;14/09/2018;15/09/2011;AKTIF;01/12/2017;01/01/2018;16/02/2018;01/04/2018;cluster0;2;TIDAK;AMAN
SP4A;2018010218;1000;1.96E+17;13095583200;ASEP SUMARNA;CERAI;DSN KIARA PAYUNG RT. 13/04 KIARASARI ;COMPRENG;KAB SUBANG;JAWA BARAT;87770303101;85321926696;L;16/09/1960;4A;Rp4.616.600;Rp0;ASEP SUMARNA;PENSIUN SENDIRI;L;16/09/1960;PENSIUN SENDIRI PNS DAERAH OTONOM;PENSIUN SENDIRI PNS DAERAH OTONOM;A;05/07/2011;TIDAK ADA;14/09/2011;15/09/2011;AKTIF;01/05/2018;01/08/2018;20/08/2018;01/11/2018;cluster0;3;BERESIKO;AMAN
SP4A;2018011794;1101;1.96E+17;13072671700;TOTO ROHIMAH;KAWIN;JL. KEBON GEDANG III NO.245/126 D RT. 02/R. 11 MALEER;BATUNUNGGAL;BANDUNG;JAWA BARAT;90266950102;81320703875;L;16/07/1958;4A;Rp4.762.000;Rp0;TOTO ROHIMAH;PENSIUN SENDIRI;L;16/07/1958;PENSIUN SENDIRI PNS DAERAH OTONOM;PENSIUN SENDIRI PNS DAERAH OTONOM;A;11/08/2010;TIDAK ADA;02/10/2010;03/10/2010;AKTIF;01/09/2018;01/12/2018;17/12/2018;01/03/2019;cluster0;3;BERESIKO;AMAN
SP4A;2018011796;1101;1.96E+17;14031452600;SRI SETIATJAHJATI;KAWIN;JL. RANGKASBITUNG 13 RT 07/04 KEBONWARU;BATUNUNGGAL;BANDUNG;JAWA BARAT;65089599101;81223121276;P;28/06/1960;3B;Rp3.384.900;Rp0;SRI SETIATJAHJATI;PENSIUN SENDIRI;P;28/06/1960;PENSIUN SENDIRI PNS DAERAH OTONOM;PENSIUN SENDIRI PNS DAERAH OTONOM;A;11/08/2010;TIDAK ADA;02/10/2010;03/10/2010;AKTIF;01/04/2018;01/07/2018;14/05/2018;01/10/2018;cluster0;1;TIDAK;AMAN
SP4A;2018011797;1100;1.96E+17;14016031100;NURUL WARDAH;KAWIN;KOMPLEK MATRA PERSADA NO. 54 PASIR KALIKI ;CIMAHI UTARA;CIMAHI;JAWABARAT;2.28E+12;85624116863;P;21/08/1960;3B;Rp3.952.600;Rp0;NURUL WARDAH;PENSIUN SENDIRI;P;21/08/1960;PENSIUN SENDIRI PNS DAERAH OTONOM;PENSIUN SENDIRI PNS DAERAH OTONOM;A;11/08/2011;TIDAK ADA;02/10/2011;03/10/2011;AKTIF;01/08/2018;01/11/2018;02/10/2018;01/02/2019;cluster0;2;TIDAK;AMAN
SP4A;2018011801;1100;1.96E+17;13162854300;IWAN WAHYU SETIAWAN;KAWIN;JL RIUNG DAMAI I NO 9 RT.007/RW.012 CISAREN KIDUL;GEDEBAGE;BANDUNG;JAWA BARAT;2.23E+12;85722177177;L;04/06/1958;4A;Rp4.762.000;Rp0;IWAN WAHYU SETIAWAN;PENSIUN SENDIRI;L;04/06/1958;PENSIUN SENDIRI PNS DAERAH OTONOM;PENSIUN SENDIRI PNS DAERAH OTONOM;A;04/07/2010;TIDAK ADA;05/08/2010;06/08/2010;AKTIF;01/05/2018;01/08/2018;09/07/2018;01/11/2018;cluster0;2;TIDAK;AMAN
UDW;2018011875;1101;131405225;13140522500;DAHNIAR AZHAR ST;KAWIN;JL. ARWANA BLOK.Q-9 NO.15N KOMP. MARGAASIH RT.03/17;MARGAASIH;KAB. BANDUNG;JAWA BARAT;7.24E+14;81236987852;L;24/04/1959;3C;Rp4.383.300;Rp13.149.900;ENDAH HANDAYANI;ISTRI;P;24/04/1959;PENSIUN SENDIRI PNS PUSAT;PENSIUN SENDIRI PNS PUSAT;W;18/08/2012;28/12/2018;29/12/2018;30/12/2018;STOP SEMENTARA PENSIUN MENINGGAL;01/08/2018;01/12/2018;28/12/2018;01/03/2019;cluster0;4;BERESIKO;SEDANG
SP4B;2018011875;1001;131405225;13140522500;ENDAH HANDAYANI;LAJANG;JL. ARWANA BLOK.Q-9 NO.15N KOMP. MARGAASIH RT.03/17;MARGAASIH;KAB. BANDUNG;JAWA BARAT;7.24E+14;81236987852;P;24/04/1969;3C;Rp3.287.475;Rp0;ENDAH HANDAYANI;PENSIUN SENDIRI;P;24/04/1969;TUNJUNGAN JANDA;TUNJANGAN JANDA;B;01/01/2019;TIDAK ADA;01/02/2019;01/03/2019;AKTIF;01/08/2018;01/12/2018;29/12/2018;01/03/2019;cluster0;4;BERESIKO;SEDANG
SPYP;2018011875;1001;131405225;13140522500;ANDHIKA SETIAWAN;MAHASISWA;JL. ARWANA BLOK.Q-9 NO.15N KOMP. MARGAASIH RT.03/17;MARGAASIH;KAB. BANDUNG;JAWA BARAT;7.24E+14;81236987852;L;12/12/1999;3C;Rp2.465.606;Rp0;ANDHIKA SETIAWAN;PENSIUN YATIM;L;12/12/1999;YATIM PIATU VETERAN;YATIM PIATU VETERAN;YP;?;TIDAK ADA;01/02/2019;01/03/2019;AKTIF;01/08/2018;01/12/2018;20/10/2018;01/03/2019;cluster0;2;TIDAK;AMAN
UDW;2018011875;1000;131405225;13140522500;ENDAH HANDAYANI;LAJANG;JL. ARWANA BLOK.Q-9 NO.15N KOMP. MARGAASIH RT.03/17;MARGAASIH;KAB. BANDUNG;JAWA BARAT;7.24E+14;81236987852;P;24/04/1969;3C;Rp0;Rp9.862.425;ASEP SUHERMAN;PENSIUN SENDIRI;L;06/04/1969;PENSIUN SENDIRI;PENSIUN SENDIRI;W;01/01/2019;17/04/2019;18/04/2019;19/04/2019;STOP PERMANEN PUNAH;01/01/2019;01/04/2019;17/04/2019;01/07/2019;cluster0;3;BERESIKO;AMAN
SP4A;2018010219;1100;1.96E+17;7000889700;WAWAN RIDWAN;KAWIN;KP PANUUSAN RT.003 RW.005;RANCAEKEK;KAB BANDUNG;JAWA BARAT;87252681100;82119411393;L;22/09/1960;3B;Rp4.205.400;Rp0;WAWAN RIDWA;PENSIUN SENDIRI;L;22/09/1960;PENSIUN SENDIRI PNS PUSAT;PENSIUN SENDIRI PNS PUSAT;A;27/08/2011;TIDAK ADA;10/10/2011;10/11/2011;AKTIF;01/03/2018;01/06/2018;30/06/2018;01/09/2018;cluster0;3;BERESIKO;AMAN
SP4A;2018010223;1100;1.96E+17;13140902000;IIS MUNIGAR;KAWIN;JL ENAU V NO.108 RT.005 RW.008 JATIBENING BARU;PONDOK GEDE;BEKASI;JAWA BARAT;1.03E+11;817220958;L;22/09/1958;4B;Rp4.963.400;Rp0;IIS MUNIGAR;PENSIUN SENDIRI;L;22/09/1960;PENSIUN SENDIRI PNS PUSAT;PENSIUN SENDIRI PNS PUSAT;A;25/07/2011;TIDAK ADA;08/09/2011;09/09/2011;AKTIF;01/10/2017;01/01/2018;26/01/2018;01/04/2018;cluster0;3;BERESIKO;AMAN
SP4A;2018010226;1102;1.96E+17;1024805800;ODANG MUDRIKA;KAWIN;JL SAUYUNAN RAYA NO 11 RT.007 RW.007;BOJONGLOA KIDUL;BANDUNG;JAWABARAT;2.23E+11;8121445144;L;24/09/1960;4B;Rp4.384.400;Rp0;ODANG MUDRIKA;PENSIUN SENDIRI;L;24/09/1960;PENSIUN SENDIRI PNS PUSAT;PENSIUN SENDIRI PNS PUSAT;A;27/08/2011;TIDAK ADA;10/10/2011;10/11/2011;AKTIF;01/12/2017;01/03/2018;22/03/2018;01/06/2018;cluster0;3;BERESIKO;AMAN
UDW;2018012724;1101;131364860;13136486000;A SAEFULLOH;KAWIN;JL. ALDATROG BLOK D LANUD SULAEMAN;MARGAHAYU;KAB. BANDUNG;JAWA BARAT;2.2E+12;81789654123;L;14/08/1958;4A;Rp4.475.700;Rp13.427.100;SITI MARIYATI;ISTRI;P;14/08/1978;PENSIUN SENDIRI PNS PUSAT;PENSIUN SENDIRI PNS PUSAT;W;09/03/2011;13/08/2018;14/08/2018;15/08/2018;STOP SEMENTARA PENSIUN MENINGGAL;02/03/2018;01/08/2018;13/08/2018;01/08/2018;cluster0;5;BERESIKO;BERBAHAYA
SP4B;2018012724;1001;131364860;13136486000;SITI MARIYATI;LAJANG;JL. ALDATROG BLOK D LANUD SULAEMAN;MARGAHAYU;KAB. BANDUNG;JAWA BARAT;2.2E+12;81789654123;P;14/08/1978;4A;Rp3.356.775;Rp0;SITI MARIYATI;PENSIUN SENDIRI;P;14/08/1978;TUNJUNGAN JANDA;TUNJANGAN JANDA;B;04/09/2018;TIDAK ADA;05/09/2018;06/09/2018;AKTIF;01/06/2018;01/09/2018;05/08/2018;01/09/2018;cluster0;2;TIDAK;AMAN
SPYP;2018012724;1001;131364860;13136486000;AYU PUSPITA SARI;MAHASISWA;JL. ALDATROG BLOK D LANUD SULAEMAN;MARGAHAYU;KAB. BANDUNG;JAWA BARAT;2.2E+12;81789654123;P;28/01/2000;4A;Rp2.517.581;Rp0;AYU PUSPITA SARI;PENSIUN YATIM;P;28/01/2000;YATIM PIATU VETERAN;YATIM PIATU VETERAN;YP;?;TIDAK ADA;05/09/2018;06/09/2018;AKTIF;01/06/2018;01/09/2018;05/08/2018;01/09/2018;cluster0;2;BERESIKO;AMAN
UDW;2018012724;1000;131364860;13136486000;SITI MARIYATI;LAJANG;JL. ALDATROG BLOK D LANUD SULAEMAN;MARGAHAYU;KAB. BANDUNG;JAWA BARAT;2.2E+12;81789654123;L;14/08/1978;4A;Rp0;Rp10.070.325;TATANG SUHARTA;SUAMI;L;02/12/1980;PENSIUN JANDA SENDIRI;PENSIUN JANDA SENDIRI;W;04/09/2018;10/03/2019;11/03/2019;12/03/2019;STOP PERMANEN PUNAH;01/12/2018;01/03/2019;10/03/2019;01/03/2019;cluster0;3;BERESIKO;AMAN
SP4A;2018010227;1101;1.96E+17;13101511800;SUYANTO;KAWIN;KP DUNGUS MAUNG RT.002 RW.007 CIKUYA;CICALENGKA;KAB BANDUNG;JAWABARAT;83260734101;85722391885;L;17/09/1958;4A;Rp4.963.400;Rp0;SUYANTO;PENSIUN SENDIRI;L;17/09/1958;PENSIUN SENDIRI PNS DAERAH OTONOM;PENSIUN SENDIRI PNS DAERAH OTONOM;A;05/07/2010;TIDAK ADA;14/09/2010;15/09/2010;AKTIF;01/05/2018;01/08/2018;11/08/2018;01/11/2018;cluster0;3;BERESIKO;AMAN
SP4A;2018010229;1001;1.96E+17;13128225100;PUTU LISTRIANI SETIAWATI;KAWIN;JL DAYANG SUMBI DALAM NO.19/87 RT.002 RW.005 CIPAGEAN;CIMAHI UTARA;CIMAHI;JAWABARAT;80539258101;82172206986;P;06/09/1958;4A;Rp4.762.000;Rp0;PUTU LISTRIANI SETIAWATI;PENSIUN SENDIRI;P;06/09/1958;PENSIUN SENDIRI PNS DAERAH OTONOM;PENSIUN SENDIRI PNS DAERAH OTONOM;A;05/07/2010;TIDAK ADA;14/09/2010;16/09/2010;AKTIF;01/05/2018;01/08/2018;14/07/2018;01/11/2018;cluster0;2;TIDAK;AMAN
SP4A;2018010230;1102;1.96E+17;13183494300;DURYAT;KAWIN;KP NAGROG RT.05 RW.06;RANCAKALONG;SUMEDANG;JAWABARAT;2.23E+12;81320719583;L;17/09/1960;3B;Rp3.491.500;Rp0;DURYAT;PENSIUN SENDIRI;L;17/09/1960;PENSIUN SENDIRI PNS PUSAT;PENSIUN SENDIRI PNS PUSAT;A;10/08/2011;TIDAK ADA;01/10/2011;02/10/2011;AKTIF;01/07/2018;01/10/2018;11/08/2018;01/01/2018;cluster0;1;TIDAK;AMAN
UDW;2018012149;1100;50036895;5003689500;DUDUNG KUSMANA HAMZAH SETIAWAN;KAWIN;KP. TEGALLAJA RT.03/06;NGAMPRAH;KAB. BANDUNG BARAT;JAWA BARAT;11482635100;89636987896;L;08/05/1960;4B;Rp4.811.900;Rp14.435.700;PUTRI SANDIRA;ISTRI;P;15/04/1980;PENSIUN SENDIRI PNS PUSAT;PENSIUN SENDIRI PNS PUSAT;W;28/08/2010;30/07/2018;05/08/2018;02/08/2018;STOP SEMENTARA PENSIUN MENINGGAL;01/06/2018;01/07/2018;30/07/2018;01/10/2018;cluster0;1;BERESIKO;AMAN
SP4A;2018010233;1101;1.96E+17;13076986500;TITIN JUTINSIH;KAWIN;DUSUN CILULUK RT.001 RW.014 MARGAJAYA;TANJUNGSARI;SUMEDANG;JAWABARAT;76235530100;85294931793;P;04/09/1958;4B;Rp4.963.400;Rp0;TITIN JUTINSIH;PENSIUN SENDIRI;P;04/09/1958;PENSIUN SENDIRI PNS PUSAT;PENSIUN SENDIRI PNS PUSAT;A;14/08/2010;TIDAK ADA;05/10/2010;06/10/2010;AKTIF;01/03/2018;01/06/2018;02/05/2018;01/09/2018;cluster0;2;TIDAK;AMAN
SP4A;2018010234;1101;1.96E+17;48011758100;TOTO WARSITO;KAWIN;KOMP BTN CIHEULEUT RT.040 RW.013;SUBANG;KAB SUBANG;JAWABARAT;50704100;81324939118;L;24/09/1960;3C;Rp4.383.300;Rp0;TOTO WARSITO;PENSIUN SENDIRI;L;24/09/1960;PENSIUN SENDIRI PNS PUSAT;PENSIUN SENDIRI PNS PUSAT;A;28/08/2011;TIDAK ADA;10/11/2010;10/12/2011;AKTIF;01/11/2017;01/02/2018;05/01/2018;01/05/2018;cluster0;2;TIDAK;AMAN
SP4A;2018011808;1102;1.96E+17;38001913000;MUSTOPA;KAWIN;CIBOGO RT.01 RW.10 CANGKUANG KULON;DAYEUHKOLOT;KAB BANDUNG;JAWABARAT;2.23E+11;81322239418;L;07/07/1960;3C;Rp3.872.000;Rp0;MUSTOPA;PENSIUN SENDIRI;L;07/07/1960;PENSIUN SENDIRI PNS DAERAH OTONOM;PENSIUN SENDIRI PNS DAERAH OTONOM;A;01/05/2011;TIDAK ADA;08/07/2011;09/10/2011;AKTIF;01/04/2018;01/07/2018;28/07/2018;01/10/2018;cluster0;3;BERESIKO;AMAN
SP4A;2018011811;1100;1.96E+17;13082858600;MISNAWATI S PD;KAWIN;KOMP GBA 1 BLOK F RT.01 RW.15;BOJONGSOANG;KAB BANDUNG;JAWABARAT;62713534101;85217104489;P;22/08/1958;4A;Rp4.762.000;Rp0;MISNAWATI S PD;PENSIUN SENDIRI;P;22/08/1958;PENSIUN SENDIRI PNS DAERAH OTONOM;PENSIUN SENDIRI PNS DAERAH OTONOM;A;11/08/2010;TIDAK ADA;02/10/2010;03/10/2010;AKTIF;01/07/2018;01/10/2018;24/08/2018;01/01/2019;cluster0;1;TIDAK;AMAN
UDW;2018012687;1100;131237468;13123746800;A E SUTIMAN;KAWIN;JL. BABAKAN RT.05/05;SOREANG;KAB. BANDUNG;JAWA BARAT;62014090100;82196325874;L;15/12/1954;4A;Rp4.093.300;Rp12.279.900;MAYANG SARI;ISTRI;P;15/12/1974;PENSIUN SENDIRI PNS PUSAT;PENSIUN SENDIRI PNS PUSAT;W;09/03/2012;22/10/2018;23/10/2018;24/10/2018;STOP SEMENTARA PENSIUN MENINGGAL;26/08/2018;01/10/2018;22/10/2018;01/01/2019;cluster0;2;TIDAK;AMAN
UDW;2018012707;1100;131472427;13147242700;DRS RAHMAT SADILI;KAWIN;BTN PEPABRI BUMI PRATAMA GUNTENG JL. SADEWA BLOK Z;KARANGTENGAH;KAB. CIANJUR;JAWA BARAT;57835419100;89963214789;L;19/07/1958;4B;Rp4.963.400;Rp14.890.200;INDRIANI MAWAR;ISTRI;P;27/12/1988;PENSIUN SENDIRI PNS PUSAT;PENSIUN SENDIRI PNS PUSAT;W;09/04/2012;11/-08/2018;12/08/2018;13/12/2018;STOP SEMENTARA PENSIUN MENINGGAL;01/04/2018;01/12/2018;11/08/2018;01/10/2018;cluster0;4;BERESIKO;SEDANG
SP4A;2018011825;1100;130528324;13052832400;ISHAK HANAFIAH;KAWIN;JL GUNUNGRAHAYU I NO.30 RT.01 RW.11 PASIR KALIKI;CIMAHI UTARA;CIMAHI;JAWABARAT;1.3E+14;85262735699;L;07/01/1957;4E;Rp4.100.000;Rp0;ISHAK HANAFIAH;PENSIUN SENDIRI;L;07/01/1957;PENSIUN SENDIRI PNS DAERAH OTONOM;PENSIUN SENDIRI PNS DAERAH OTONOM;A;10/07/2010;TIDAK ADA;03/10/2010;04/10/2010;AKTIF;01/10/2017;01/01/2018;20/01/2018;01/04/2018;cluster0;3;BERESIKO;AMAN
SP4A;2018011833;1100;130410022;13041002200;EMAN HIDAYAT;KAWIN;KP NAGRAK RT.0 RW.07 SIRNAJAYA;CIPENDEUY;KAB BANDUNG BARAT;JAWABARAT;4.12E+14;8.53E+11;L;13/03/1952;4B;Rp3.620.800;Rp0;EMAN HIDAYAT;PENSIUN SENDIRI;L;13/03/1952;PENSIUN SENDIRI PNS DAERAH OTONOM;PENSIUN SENDIRI PNS DAERAH OTONOM;A;10/07/2010;TIDAK ADA;03/10/2010;04/10/2010;AKTIF;01/09/2018;01/12/2018;04/12/2018;01/03/2018;cluster0;3;BERESIKO;AMAN
SP4A;2018010279;1100;1.96E+17;38004353400;KUSNADI A;KAWIN;DS. SALAM JAYA RT.001/01 ;PURWAKARTA;KAB PURWAKARTA;JAWABARAT;1,00E+11;?;L;02/09/1960;2C;Rp4.963.400;Rp0;KUSNADI A;PENSIUN SENDIRI;L;02/09/1960;PENSIUN SENDIRI PNS DAERAH OTONOM;PENSIUN SENDIRI PNS DAERAH OTONOM;A;09/07/2011;TIDAK ADA;18/09/2011;19/09/2011;AKTIF;01/03/2018;01/06/2018;03/06/2018;01/09/2018;cluster0;3;BERESIKO;AMAN
UDW;2018011870;1100;160026612;16002661200;AGUS AHMAD SAFARI;KAWIN;KP. CIPATAT NO.27 RT.01/10;MARGAASIH;KAB. BANDUNG;JAWA BARAT;69406823101;89589637412;L;20/08/1958;3C;Rp4.249.500;Rp12.748.500;YETI SURMAYANI;ISTRI;P;20/08/1978;PENSIUN SENDIRI PNS PUSAT;PENSIUN SENDIRI PNS PUSAT;W;18/08/2012;11/09/2018;12/09/2018;13/09/2018;STOP SEMENTARA PENSIUN MENINGGAL;27/07/2018;01/09/2018;11/09/2018;01/01/2019;cluster0;2;TIDAK;AMAN
SP4B;2018011870;1000;160026612;16002661200;YETI SURMAYANI;LAJANG;KP. CIPATAT NO.27 RT.01/10;MARGAASIH;KAB. BANDUNG;JAWA BARAT;69406823101;89589637412;P;20/08/1978;3C;Rp3.187.125;Rp0;YETI SURMAYANI;PENSIUN SENDIRI;P;20/08/1978;TUNJUNGAN JANDA;TUNJUNGAN JANDA;B;30/01/2018;TIDAK ADA;31/01/2018;01/02/2018;AKTIF;01/10/2017;01/01/2018;31/01/2018;01/04/2018;cluster0;3;BERESIKO;AMAN
UDW;2018011803;1101;1.96E+17;13095100000;NENENG NURLAELA ROSITA;KAWIN;LING GUNUNG MERAK RT.04 RW.02 REGOL WETAN;SUMEDANG SELATAN;KAB SUMEDANG;JAWA BARAT;9.4E+12;85320017308;P;09/11/1966;4A;Rp4.616.600;Rp13.849.800;LILI SUMARLI;SUAMI;L;31/12/1966;PENSIUN SENDIRI PNS DAERAH OTONOM;PENSIUN SENDIRI PNS DAERAH OTONOM;W;09/02/2011;12/09/2018;13/09/2018;14/09/2018;STOP SEMENTARA PENSIUN MENINGGAL;01/06/2018;01/09/2018;13/09/2018;01/12/2018;cluster0;3;BERESIKO;AMAN
