# Fdb version 3
["bibtex main"] 1567833812 "main.aux" "main.bbl" "main" 1567833815
  "/home/librantara/Documents/INTERNSHIP_DAN_TA/LateX/internship2ta2019/Librantara Erlangga/TugasAkhir/section/abstract.aux" 1567833813 516 8cc6fc556b74c2af116cde1042520cac ""
  "/home/librantara/Documents/INTERNSHIP_DAN_TA/LateX/internship2ta2019/Librantara Erlangga/TugasAkhir/section/abstrak.aux" 1567833813 515 97d614e18358b6631c5b21231b761395 ""
  "/home/librantara/Documents/INTERNSHIP_DAN_TA/LateX/internship2ta2019/Librantara Erlangga/TugasAkhir/section/acknowlegements.aux" 1567833813 523 b79502e7547005982e5b2757e1670801 ""
  "/home/librantara/Documents/INTERNSHIP_DAN_TA/LateX/internship2ta2019/Librantara Erlangga/TugasAkhir/section/appendix1.aux" 1567833814 693 b888a98c0445ed7ca7284ec5db65836e ""
  "/home/librantara/Documents/INTERNSHIP_DAN_TA/LateX/internship2ta2019/Librantara Erlangga/TugasAkhir/section/appendix2.aux" 1567833815 825 da2d4053c4c79d24e2ff1cf90870a376 ""
  "/home/librantara/Documents/INTERNSHIP_DAN_TA/LateX/internship2ta2019/Librantara Erlangga/TugasAkhir/section/appendix3.aux" 1567833814 815 52a3a63d084ff0b76f8c484cd72c5a88 ""
  "/home/librantara/Documents/INTERNSHIP_DAN_TA/LateX/internship2ta2019/Librantara Erlangga/TugasAkhir/section/chapter1.aux" 1567833813 1930 923910308e697bbb520ad846b631759e ""
  "/home/librantara/Documents/INTERNSHIP_DAN_TA/LateX/internship2ta2019/Librantara Erlangga/TugasAkhir/section/chapter2.aux" 1567833813 6210 ff6b39585f79670fb449be384abc27cb ""
  "/home/librantara/Documents/INTERNSHIP_DAN_TA/LateX/internship2ta2019/Librantara Erlangga/TugasAkhir/section/chapter3.aux" 1567833813 1585 121b2dd6ebcb3e06c39e47c8cc20d504 ""
  "/home/librantara/Documents/INTERNSHIP_DAN_TA/LateX/internship2ta2019/Librantara Erlangga/TugasAkhir/section/chapter4.aux" 1567833813 3040 a6920f7e7ce32bb566e1d0436ba4b528 ""
  "/home/librantara/Documents/INTERNSHIP_DAN_TA/LateX/internship2ta2019/Librantara Erlangga/TugasAkhir/section/chapter5.aux" 1567833814 7471 cbece91b303087ada9dad3226c8a2a9d ""
  "/home/librantara/Documents/INTERNSHIP_DAN_TA/LateX/internship2ta2019/Librantara Erlangga/TugasAkhir/section/chapter6.aux" 1567833814 1593 568abd21f2070a001e9cabc5b9713803 ""
  "/home/librantara/Documents/INTERNSHIP_DAN_TA/LateX/internship2ta2019/Librantara Erlangga/TugasAkhir/section/chapter7.aux" 1567833814 1034 56fa9b665d13b17972be6270658432ae ""
  "/home/librantara/Documents/INTERNSHIP_DAN_TA/LateX/internship2ta2019/Librantara Erlangga/TugasAkhir/section/dedication.aux" 1567833813 518 df07a472187a15d186fe753fb7d66987 ""
  "/home/librantara/Documents/INTERNSHIP_DAN_TA/LateX/internship2ta2019/Librantara Erlangga/TugasAkhir/section/halaman.aux" 1567833813 515 5abd4f8b03b865e555531bab32c96011 ""
  "/home/librantara/Documents/INTERNSHIP_DAN_TA/LateX/internship2ta2019/Librantara Erlangga/TugasAkhir/section/pengesahan.aux" 1567833813 518 94495fcc5585348595da24abade3b3d6 ""
  "/home/librantara/Documents/INTERNSHIP_DAN_TA/LateX/internship2ta2019/Librantara Erlangga/TugasAkhir/section/pernyataan.aux" 1567833813 518 a8318e192572f1020469a5110c8a5405 ""
  "/home/librantara/Documents/INTERNSHIP_DAN_TA/LateX/internship2ta2019/Librantara Erlangga/TugasAkhir/section/simbol.aux" 1567833813 641 2011b40a10eaf6bb3c901a615c02cb6a ""
  "/home/librantara/Documents/INTERNSHIP_DAN_TA/LateX/internship2ta2019/Librantara Erlangga/TugasAkhir/section/singkatan.aux" 1567833813 518 552d4384ec0e95fb73ed7da2f226e09e ""
  "/usr/share/texmf-dist/bibtex/bst/IEEEtran/IEEEtran.bst" 1550406587 57748 7c8250ecf02814ce6ddc0cdbb63df1dd ""
  "main.aux" 1567833815 2814 9b568b6acc60d91ba2267a421fd0a3f6 ""
  "references.bib" 1567335758 12684 092b6c864e2620d33d7274246b9683b5 ""
  (generated)
  "main.bbl"
  "main.blg"
["pdflatex"] 1567833812 "/home/librantara/Documents/INTERNSHIP_DAN_TA/LateX/internship2ta2019/Librantara Erlangga/TugasAkhir/main.tex" "/home/librantara/Documents/INTERNSHIP_DAN_TA/LateX/internship2ta2019/Librantara Erlangga/TugasAkhir/main.pdf" "main" 1567833815
  "/home/librantara/Documents/INTERNSHIP_DAN_TA/LateX/internship2ta2019/Librantara Erlangga/TugasAkhir/main.aux" 1567833815 2814 9b568b6acc60d91ba2267a421fd0a3f6 ""
  "/home/librantara/Documents/INTERNSHIP_DAN_TA/LateX/internship2ta2019/Librantara Erlangga/TugasAkhir/main.tex" 1567443725 3678 bfeb6fc53727343af16a5c22b32bef7c ""
  "/usr/share/texmf-dist/fonts/map/fontname/texfonts.map" 1550406775 3332 103109f5612ad95229751940c61aada0 ""
  "/usr/share/texmf-dist/fonts/tfm/public/amsfonts/cmextra/cmex7.tfm" 1550406775 1004 54797486969f23fa377b128694d548df ""
  "/usr/share/texmf-dist/fonts/tfm/public/amsfonts/cmextra/cmex8.tfm" 1550406775 988 bdf658c3bfc2d96d3c8b02cfc1c94c20 ""
  "/usr/share/texmf-dist/fonts/tfm/public/amsfonts/symbols/msam10.tfm" 1550406775 916 f87d7c45f9c908e672703b83b72241a3 ""
  "/usr/share/texmf-dist/fonts/tfm/public/amsfonts/symbols/msam7.tfm" 1550406775 928 2dc8d444221b7a635bb58038579b861a ""
  "/usr/share/texmf-dist/fonts/tfm/public/amsfonts/symbols/msbm10.tfm" 1550406775 908 2921f8a10601f252058503cc6570e581 ""
  "/usr/share/texmf-dist/fonts/tfm/public/amsfonts/symbols/msbm7.tfm" 1550406775 940 228d6584342e91276bf566bcf9716b83 ""
  "/usr/share/texmf-dist/fonts/tfm/public/cm/cmbx12.tfm" 1550406775 1324 c910af8c371558dc20f2d7822f66fe64 ""
  "/usr/share/texmf-dist/fonts/tfm/public/cm/cmbxti10.tfm" 1550406775 1532 9162035f4e7176612125649e348e2195 ""
  "/usr/share/texmf-dist/fonts/tfm/public/cm/cmex10.tfm" 1550406775 992 662f679a0b3d2d53c1b94050fdaa3f50 ""
  "/usr/share/texmf-dist/fonts/tfm/public/cm/cmmi12.tfm" 1550406775 1524 4414a8315f39513458b80dfc63bff03a ""
  "/usr/share/texmf-dist/fonts/tfm/public/cm/cmmi6.tfm" 1550406775 1512 f21f83efb36853c0b70002322c1ab3ad ""
  "/usr/share/texmf-dist/fonts/tfm/public/cm/cmmi8.tfm" 1550406775 1520 eccf95517727cb11801f4f1aee3a21b4 ""
  "/usr/share/texmf-dist/fonts/tfm/public/cm/cmr12.tfm" 1550406775 1288 655e228510b4c2a1abe905c368440826 ""
  "/usr/share/texmf-dist/fonts/tfm/public/cm/cmr17.tfm" 1550406775 1292 296a67155bdbfc32aa9c636f21e91433 ""
  "/usr/share/texmf-dist/fonts/tfm/public/cm/cmr6.tfm" 1550406775 1300 b62933e007d01cfd073f79b963c01526 ""
  "/usr/share/texmf-dist/fonts/tfm/public/cm/cmr8.tfm" 1550406775 1292 21c1c5bfeaebccffdb478fd231a0997d ""
  "/usr/share/texmf-dist/fonts/tfm/public/cm/cmsy10.tfm" 1550406775 1124 6c73e740cf17375f03eec0ee63599741 ""
  "/usr/share/texmf-dist/fonts/tfm/public/cm/cmsy6.tfm" 1550406775 1116 933a60c408fc0a863a92debe84b2d294 ""
  "/usr/share/texmf-dist/fonts/tfm/public/cm/cmsy8.tfm" 1550406775 1120 8b7d695260f3cff42e636090a8002094 ""
  "/usr/share/texmf-dist/fonts/tfm/public/cm/cmti12.tfm" 1550406775 1484 ed72f8f5cf654cda15ecc8e32bfcbee5 ""
  "/usr/share/texmf-dist/fonts/tfm/public/cm/cmtt12.tfm" 1550406775 772 9a936b7f5e2ff0557fce0f62822f0bbf ""
  "/usr/share/texmf-dist/fonts/type1/public/amsfonts/cm/cmbx12.pfb" 1550406775 32080 340ef9bf63678554ee606688e7b5339d ""
  "/usr/share/texmf-dist/fonts/type1/public/amsfonts/cm/cmbxti10.pfb" 1550406775 36554 b67dc2cfa451409e100b3fcf5f506509 ""
  "/usr/share/texmf-dist/fonts/type1/public/amsfonts/cm/cmmi12.pfb" 1550406775 36741 fa121aac0049305630cf160b86157ee4 ""
  "/usr/share/texmf-dist/fonts/type1/public/amsfonts/cm/cmr12.pfb" 1550406775 32722 d7379af29a190c3f453aba36302ff5a9 ""
  "/usr/share/texmf-dist/fonts/type1/public/amsfonts/cm/cmr17.pfb" 1550406775 32362 179c33bbf43f19adbb3825bb4e36e57a ""
  "/usr/share/texmf-dist/fonts/type1/public/amsfonts/cm/cmsy10.pfb" 1550406775 32569 5e5ddc8df908dea60932f3c484a54c0d ""
  "/usr/share/texmf-dist/fonts/type1/public/amsfonts/cm/cmti12.pfb" 1550406775 36118 fad905eba93cff5bce1e185fe980a177 ""
  "/usr/share/texmf-dist/fonts/type1/public/amsfonts/cm/cmtt12.pfb" 1550406775 24252 1e4e051947e12dfb50fee0b7f4e26e3a ""
  "/usr/share/texmf-dist/tex/context/base/mkii/supp-pdf.mkii" 1550406775 71627 94eb9990bed73c364d7f53f960cc8c5b ""
  "/usr/share/texmf-dist/tex/generic/oberdiek/etexcmds.sty" 1550406775 7612 729a8cc22a1ee0029997c7f74717ae05 ""
  "/usr/share/texmf-dist/tex/generic/oberdiek/ifluatex.sty" 1550406775 7324 2310d1247db0114eb4726807c8837a0e ""
  "/usr/share/texmf-dist/tex/generic/oberdiek/ifpdf.sty" 1550406775 1300 96620a7d94bc0ceb261d968770ce8315 ""
  "/usr/share/texmf-dist/tex/generic/oberdiek/infwarerr.sty" 1550406775 8253 473e0e41f9adadb1977e8631b8f72ea6 ""
  "/usr/share/texmf-dist/tex/generic/oberdiek/kvdefinekeys.sty" 1550406775 5152 b67a3a964ad9851e095110c854a1d461 ""
  "/usr/share/texmf-dist/tex/generic/oberdiek/kvsetkeys.sty" 1550406775 14040 ac8866aac45982ac84021584b0abb252 ""
  "/usr/share/texmf-dist/tex/generic/oberdiek/ltxcmds.sty" 1550406775 18425 5b3c0c59d76fac78978b5558e83c1f36 ""
  "/usr/share/texmf-dist/tex/generic/oberdiek/pdftexcmds.sty" 1550406775 20457 0d2e642faacbb41c9d72690f8cc529cd ""
  "/usr/share/texmf-dist/tex/generic/xkeyval/xkeyval.tex" 1550406775 19231 26434a5656c684f5ffb1f26f98006baa ""
  "/usr/share/texmf-dist/tex/generic/xkeyval/xkvutils.tex" 1550406775 7677 6f5ce7c1124cad7ec57d05b2562bd8fe ""
  "/usr/share/texmf-dist/tex/latex/adjustbox/adjcalc.sty" 1550406342 5608 e823b3adfbc2ea70e453a21ea6e2ee12 ""
  "/usr/share/texmf-dist/tex/latex/adjustbox/adjustbox.sty" 1550406342 55974 e90ddd9a6114a7008a6915da904f2847 ""
  "/usr/share/texmf-dist/tex/latex/adjustbox/tc-pdftex.def" 1550406342 4061 aa67e478bd1a58a42e026c354f10b158 ""
  "/usr/share/texmf-dist/tex/latex/adjustbox/trimclip.sty" 1550406342 7142 42aaa49a4afcdc52e9d95e3b19f439be ""
  "/usr/share/texmf-dist/tex/latex/amsfonts/amsfonts.sty" 1550406775 5949 3f3fd50a8cc94c3d4cbf4fc66cd3df1c ""
  "/usr/share/texmf-dist/tex/latex/amsfonts/amssymb.sty" 1550406775 13829 94730e64147574077f8ecfea9bb69af4 ""
  "/usr/share/texmf-dist/tex/latex/amsfonts/umsa.fd" 1550406775 961 6518c6525a34feb5e8250ffa91731cff ""
  "/usr/share/texmf-dist/tex/latex/amsfonts/umsb.fd" 1550406775 961 d02606146ba5601b5645f987c92e6193 ""
  "/usr/share/texmf-dist/tex/latex/base/ifthen.sty" 1550406775 5161 c004ea5a189d4bdcf42e86754ad75a58 ""
  "/usr/share/texmf-dist/tex/latex/base/omscmr.fd" 1550406775 2472 aa08940f0a4dc6c24ae9f943b04ae0b9 ""
  "/usr/share/texmf-dist/tex/latex/base/report.cls" 1550406775 22992 ac205d2578ad3f18cf73b50579632d1c ""
  "/usr/share/texmf-dist/tex/latex/base/size12.clo" 1550406775 8305 6a682ae291edd56e2d7accbf95eca451 ""
  "/usr/share/texmf-dist/tex/latex/caption/caption.sty" 1550406775 68576 86bbc6bd5a409b3c353fccc1a815fa5b ""
  "/usr/share/texmf-dist/tex/latex/caption/caption3.sty" 1550406775 68510 943558eecf41da4e76fc614fd7f5deff ""
  "/usr/share/texmf-dist/tex/latex/collectbox/collectbox.sty" 1550406342 9116 495d44b5a3e7be0c46c5d1f053f457f0 ""
  "/usr/share/texmf-dist/tex/latex/graphics-cfg/graphics.cfg" 1550406775 1224 978390e9c2234eab29404bc21b268d1e ""
  "/usr/share/texmf-dist/tex/latex/graphics-def/pdftex.def" 1550406775 17334 520b9b85ad8a2a48eda3f643e27a5179 ""
  "/usr/share/texmf-dist/tex/latex/graphics/graphics.sty" 1550406775 15272 5a97061616e0c8b2aa79c6615ff769f4 ""
  "/usr/share/texmf-dist/tex/latex/graphics/graphicx.sty" 1550406775 9063 d0a305975932762117cd1f06a582f896 ""
  "/usr/share/texmf-dist/tex/latex/graphics/keyval.sty" 1550406775 2591 6404d0c7d28505fb38ce0d86c2e28ae7 ""
  "/usr/share/texmf-dist/tex/latex/graphics/trig.sty" 1550406775 3977 cb9221976ed8a183afad65b59aa8629a ""
  "/usr/share/texmf-dist/tex/latex/ifoddpage/ifoddpage.sty" 1550406342 2148 0426cd8bb94163c1e23726d0c15e2c21 ""
  "/usr/share/texmf-dist/tex/latex/latexconfig/epstopdf-sys.cfg" 1550406775 678 4792914a8f45be57bb98413425e4c7af ""
  "/usr/share/texmf-dist/tex/latex/multirow/multirow.sty" 1550406342 5164 bcc9f9eb87b893f14f0e34388a369d7e ""
  "/usr/share/texmf-dist/tex/latex/oberdiek/epstopdf-base.sty" 1550406775 12095 5337833c991d80788a43d3ce26bd1c46 ""
  "/usr/share/texmf-dist/tex/latex/oberdiek/grfext.sty" 1550406775 7075 2fe3d848bba95f139de11ded085e74aa ""
  "/usr/share/texmf-dist/tex/latex/oberdiek/kvoptions.sty" 1550406775 22417 1d9df1eb66848aa31b18a593099cf45c ""
  "/usr/share/texmf-dist/tex/latex/tools/array.sty" 1550406775 12527 31ab547f6520657998ecf91709f950ac ""
  "/usr/share/texmf-dist/tex/latex/tools/tabularx.sty" 1550406775 7145 01b7b53bf69f5c0f63803657eb51217f ""
  "/usr/share/texmf-dist/tex/latex/url/url.sty" 1550406775 12796 8edb7d69a20b857904dd0ea757c14ec9 ""
  "/usr/share/texmf-dist/tex/latex/varwidth/varwidth.sty" 1550406342 10894 d359a13923460b2a73d4312d613554c8 ""
  "/usr/share/texmf-dist/tex/latex/xkeyval/xkeyval.sty" 1550406775 4962 9c1069474ff71dbc47d5006555e352d3 ""
  "/usr/share/texmf-dist/web2c/texmf.cnf" 1550406775 33301 a3134070eacafb10b1f371612ce2650d ""
  "/var/lib/texmf/fonts/map/pdftex/updmap/pdftex.map" 1557032975 3106252 d5255ed7fd6ec6ea7699581e9a54cb46 ""
  "/var/lib/texmf/web2c/pdftex/pdflatex.fmt" 1557032960 7919195 50f523a7c7946097d84349a81faee635 ""
  "figures/Arsitektur.jpg" 1565275533 31956 57bd5adbdde32e689131e5a66939ff25 ""
  "figures/Berjalan.jpg" 1565496429 92070 09156d0fb346832b98cf47dc6a412f0c ""
  "figures/DiBangun.jpg" 1565449010 182123 3e91f1770fa6d332d96d662a3c6e285a ""
  "figures/Water.png" 1565275962 5755 a3cb3ee8644f2c0d8fbac63788ce1031 ""
  "figures/awal/simbol.PNG" 1567350210 9140 28489a7f605f6824a0e77276caf014c5 ""
  "figures/cosine.png" 1565519177 24494 6c884d5010e9b1df90bf54b42f2bdc71 ""
  "figures/db.png" 1565448764 51251 432a498805c5b7a2cdbcfef58312b504 ""
  "figures/implementasi/keywords.png" 1565535269 114780 1f45bdd0e6a23dac5b5dbd8f506f38ed ""
  "figures/implementasi/login.png" 1565535134 75114 395788b08c9f5c69438dc00991c4e7b7 ""
  "figures/implementasi/pesan.png" 1565535324 128376 1a35b914efbaae0edf8d41a775347dba ""
  "figures/implementasi/templates.png" 1565535379 137637 71c310b386d1b726239d708b2410f7c9 ""
  "figures/lampiran/code.png" 1567347400 484505 c9d1ef85702d4e9dbfba270dd793a640 ""
  "figures/lampiran/cv.png" 1567347115 191206 6835d1423baedcd8c3a328cb54c28edc ""
  "figures/nlp.jpg" 1565525130 23184 86562b43bb2fdc97dd0d8d2b0290a4de ""
  "figures/objekPenelitian/objek.png" 1566302152 267378 af822c46df46665af8353719d6f157f1 ""
  "figures/pengujian/res.jpg" 1567832937 25240 3af66deb414fdd5b2ecd19e5d6a29df6 ""
  "figures/pengujian/template.png" 1566230735 73759 50ea661d8cb3e67993d9df55681d6015 ""
  "figures/testcase/keywords.png" 1565625929 30495 02e135af57c7274d29b38b5fec688b55 ""
  "figures/testcase/login.png" 1565625899 7034 9eb9f2552e7f9b98d9e36bfcd9ffcf96 ""
  "figures/testcase/message.png" 1565625956 45497 c7c70e2e08bbefd64be373d83f756157 ""
  "figures/testcase/result.png" 1565626551 26740 d397daf1230f1cde480f53a5dc3c91d7 ""
  "figures/testcase/templates.png" 1565625983 48072 9bdeb5838053c19999a5f0bade648ae4 ""
  "logo-poltekpos.png" 1554286922 103033 73c02b41f948b6abfa0caf5c332e10a7 ""
  "main.aux" 1567833815 2814 9b568b6acc60d91ba2267a421fd0a3f6 ""
  "main.bbl" 1567833812 8036 664ac9bb980280cf8cd569a844e88ca8 "bibtex main"
  "main.lof" 1567833815 2771 a0da189b07c7d5994a547c89eda0d1c7 ""
  "main.lot" 1567833815 1730 92ba467494d56b7e1964742e23a4c2c2 ""
  "main.tex" 1567443725 3678 bfeb6fc53727343af16a5c22b32bef7c ""
  "main.toc" 1567833815 7430 b5e3d70170d0f43de46bc4c8dbb19f93 ""
  "ociamthesis.cls" 1567345552 10476 910ec8c2de6585d83fff3d7dac4ba247 ""
  "section/abstract.aux" 1567833813 516 8cc6fc556b74c2af116cde1042520cac ""
  "section/abstract.tex" 1567702058 1393 c65f738e7df4f2c0f7e793c78d196b86 ""
  "section/abstrak.aux" 1567833813 515 97d614e18358b6631c5b21231b761395 ""
  "section/abstrak.tex" 1567443315 1825 a092e0d23e11653a7687066c3015d66a ""
  "section/acknowlegements.aux" 1567833813 523 b79502e7547005982e5b2757e1670801 ""
  "section/acknowlegements.tex" 1567785458 1488 aa84b2318668f35e378fe7f662549d53 ""
  "section/appendix1.aux" 1567833814 693 b888a98c0445ed7ca7284ec5db65836e ""
  "section/appendix1.tex" 1567445227 640 83f08af00e499bd7562fcb63c726dc40 ""
  "section/appendix2.aux" 1567833815 825 da2d4053c4c79d24e2ff1cf90870a376 ""
  "section/appendix2.tex" 1567347216 169 7db3d5ec845192907d34edf47bb5d8a5 ""
  "section/appendix3.aux" 1567833814 815 52a3a63d084ff0b76f8c484cd72c5a88 ""
  "section/appendix3.tex" 1567347646 161 94ae19b8bb8136e20718f04ae13f5310 ""
  "section/chapter1.aux" 1567833813 1930 923910308e697bbb520ad846b631759e ""
  "section/chapter1.tex" 1567829884 4025 8cb3a420ad23e03c5bdca98411d1cffe ""
  "section/chapter2.aux" 1567833813 6210 ff6b39585f79670fb449be384abc27cb ""
  "section/chapter2.tex" 1567444707 17951 240df149d88e980efb9886c3056d8978 ""
  "section/chapter3.aux" 1567833813 1585 121b2dd6ebcb3e06c39e47c8cc20d504 ""
  "section/chapter3.tex" 1567582967 2346 1852b7882ef25d30efd6807fedaf5773 ""
  "section/chapter4.aux" 1567833813 3040 a6920f7e7ce32bb566e1d0436ba4b528 ""
  "section/chapter4.tex" 1567336163 5836 7e03d4879c6fd2079e842cd96625922a ""
  "section/chapter5.aux" 1567833814 7471 cbece91b303087ada9dad3226c8a2a9d ""
  "section/chapter5.tex" 1567833439 17311 848ebb952edce2a16a7190446165c899 ""
  "section/chapter6.aux" 1567833814 1593 568abd21f2070a001e9cabc5b9713803 ""
  "section/chapter6.tex" 1567833778 2636 2e5c3ebf259ecb31c920ceddeec2c182 ""
  "section/chapter7.aux" 1567833814 1034 56fa9b665d13b17972be6270658432ae ""
  "section/chapter7.tex" 1565728681 831 803ec79f8ca3400da3882140733ceb5c ""
  "section/dedication.aux" 1567833813 518 df07a472187a15d186fe753fb7d66987 ""
  "section/dedication.tex" 1554286922 160 f3b4fdb6432138ab83145a0885df84eb ""
  "section/halaman.aux" 1567833813 515 5abd4f8b03b865e555531bab32c96011 ""
  "section/halaman.tex" 1567249733 57 031457882ac2f8414a6a6d7ea9ddd4f5 ""
  "section/pengesahan.aux" 1567833813 518 94495fcc5585348595da24abade3b3d6 ""
  "section/pengesahan.tex" 1567248456 54 d97d5fe6623d42c52bcf90ebbfe5b2e7 ""
  "section/pernyataan.aux" 1567833813 518 a8318e192572f1020469a5110c8a5405 ""
  "section/pernyataan.tex" 1567248478 53 26f3c26a6206e3410ab0920c3415fe3f ""
  "section/simbol.aux" 1567833813 641 2011b40a10eaf6bb3c901a615c02cb6a ""
  "section/simbol.tex" 1567345149 165 c24dbed15504ccee486551ad07c36d83 ""
  "section/singkatan.aux" 1567833813 518 552d4384ec0e95fb73ed7da2f226e09e ""
  "section/singkatan.tex" 1567345412 430 c93dc1f7092379ff265687b24b6e4641 ""
  (generated)
  "section/chapter3.aux"
  "section/pernyataan.aux"
  "main.lof"
  "main.pdf"
  "section/acknowlegements.aux"
  "section/chapter2.aux"
  "section/halaman.aux"
  "main.toc"
  "section/abstract.aux"
  "section/pengesahan.aux"
  "/home/librantara/Documents/INTERNSHIP_DAN_TA/LateX/internship2ta2019/Librantara Erlangga/TugasAkhir/main.log"
  "section/abstrak.aux"
  "main.log"
  "section/chapter7.aux"
  "main.aux"
  "section/chapter6.aux"
  "/home/librantara/Documents/INTERNSHIP_DAN_TA/LateX/internship2ta2019/Librantara Erlangga/TugasAkhir/main.pdf"
  "section/simbol.aux"
  "main.lot"
  "section/appendix2.aux"
  "section/appendix1.aux"
  "section/chapter5.aux"
  "section/appendix3.aux"
  "section/chapter1.aux"
  "section/dedication.aux"
  "section/chapter4.aux"
  "section/singkatan.aux"
